servlet/Resource.class
servlet/AccessController.class
servlet/AuthenticationError.class
servlet/Account.class
servlet/UndefinedAccount.class
servlet/Factory.class
servlet/Operation.class
servlet/Capability.class
servlet/LockedAccount.class
servlet/Authenticator.class
servlet/CrypService.class
